<!-- Generated by IcoMoon.io --><svg xmlns:dc="http://purl.org/dc/elements/1.1/" xmlns:cc="http://creativecommons.org/ns#" xmlns:rdf="http://www.w3.org/1999/02/22-rdf-syntax-ns#" xmlns:svg="http://www.w3.org/2000/svg" xmlns="http://www.w3.org/2000/svg" xmlns:sodipodi="http://sodipodi.sourceforge.net/DTD/sodipodi-0.dtd" xmlns:inkscape="http://www.inkscape.org/namespaces/inkscape" version="1.1" width="64px" height="64px" viewBox="0 0 64 64" id="svg2" inkscape:version="0.91 r13725" sodipodi:docname="port_left.svg">
  <metadata id="metadata10">
    <rdf:RDF>
      <cc:Work rdf:about="">
        <dc:format>image/svg+xml</dc:format>
        <dc:type rdf:resource="http://purl.org/dc/dcmitype/StillImage"/>
        <dc:title/>
      </cc:Work>
    </rdf:RDF>
  </metadata>
  <defs id="defs8"/>
  <sodipodi:namedview pagecolor="#ffffff" bordercolor="#666666" borderopacity="1" objecttolerance="10" gridtolerance="10" guidetolerance="10" inkscape:pageopacity="0" inkscape:pageshadow="2" inkscape:window-width="1564" inkscape:window-height="911" id="namedview6" showgrid="true" inkscape:zoom="11.36" inkscape:cx="14" inkscape:cy="32" inkscape:window-x="0" inkscape:window-y="1" inkscape:window-maximized="0" inkscape:current-layer="svg2" inkscape:snap-object-midpoints="true">
    <inkscape:grid type="xygrid" id="grid3338" empspacing="4"/>
  </sodipodi:namedview>
  <rect style="fill:#ffffff" id="rect4250" width="9.6949148" height="10.305085" x="-36" y="32"/>
  <rect style="fill:#ffffff" id="rect4252" width="16" height="11.932203" x="-33.491524" y="29.830509"/>
  <path style="fill:#000000;fill-opacity:1" d="M 30,49.320312 30,44.125 9,32 30,19.875 30,14.679688 0,32 30,49.320312 Z" id="rect4216"/>
  <circle style="fill:#000000;fill-opacity:1" id="path4139" cx="60" cy="32" r="4"/>
  <rect style="fill:#000000;fill-opacity:1" id="rect4141" width="52" height="8" x="8" y="28"/>
</svg>