# GHZ   S   MA   R   50.0
     -100.00000    0.0001    0.0000    0.9999    90.000    0.9999    90.000    0.0001    0.0000
     100.000000    0.0001    0.0000    0.9999    90.000    0.9999    90.000    0.0001    0.0000
